src/sem_4/ipa/RISC-V/dump.vcd
$date
	Fri Mar  7 15:42:45 2025
$end
$version
	Icarus Verilog
$end
$timescale
	1s
$end
$scope module tb $end
$var wire 1 ! stall $end
$var wire 1 " flush $end
$var wire 64 # element8 [63:0] $end
$var wire 64 $ element7 [63:0] $end
$var wire 64 % element6 [63:0] $end
$var wire 64 & element5 [63:0] $end
$var wire 64 ' element4 [63:0] $end
$var wire 64 ( element3 [63:0] $end
$var wire 64 ) element2 [63:0] $end
$var wire 64 * element1 [63:0] $end
$var reg 1 + clk $end
$var reg 1 , reset $end
$upscope $end
$enddefinitions $end
#0
$dumpvars
1,
0+
b1 *
b10 )
b11 (
b100 '
b101 &
b110 %
b111 $
b1000 #
0"
0!
$end
#5
1+
#7
0,
#10
0+
#15
1+
#20
0+
#25
1+
#30
0+
#35
1+
#40
0+
#45
1+
#50
0+
#55
1+
#60
0+
#65
1+
#70
0+
#75
1+
#80
0+
#85
1+
#90
0+
#95
1+
#100
0+
#105
1+
#110
0+
#115
1+
#120
0+
#125
1+
#130
0+
#135
1+
#140
0+
#145
1!
1+
#150
0+
#155
0!
1+
#160
0+
#165
1+
#170
0+
#175
1+
#180
0+
#185
1"
1+
#190
0+
#195
0"
1+
#200
0+
#205
1+
#210
0+
#215
1+
#220
0+
#225
1+
#230
0+
#235
1!
1+
#240
0+
#245
0!
1+
#250
0+
#255
1+
#260
0+
#265
1+
#270
0+
#275
1+
#280
0+
#285
1+
#290
0+
#295
1+
#300
0+
#305
1+
#310
0+
#315
1+
#320
0+
#325
1+
#330
0+
#335
1+
#340
0+
#345
1"
1+
#350
0+
#355
0"
1+
#360
0+
#365
1+
#370
0+
#375
1+
#380
0+
#385
1+
#390
0+
#395
1+
#400
0+
#405
1+
#410
0+
#415
1"
1+
#420
0+
#425
0"
1+
